Introduction to R + Time Series
…
tsibble allows multiple time series to be stored. Let’s look at the Olympics data set containing the fastest running times for women’s and men’s track races from 100m to 10000m. We have a tsibble object with:

[4y] indicates that the interval of these obs. is every 4 years.

Key line: indicates 14 separate time series

The 14 time series are identified by the KEYS: Length and Sex.

The distinct() function can be used to show them

library(tsibbledata) 
olympic_running 

# A tsibble: 312 x 4 [4Y]
# Key:       Length, Sex [14]
    Year Length Sex    Time
   <int>  <int> <chr> <dbl>
 1  1896    100 men    12  
 2  1900    100 men    11  
 3  1904    100 men    11  
 4  1908    100 men    10.8
 5  1912    100 men    10.8
 6  1916    100 men    NA  
 7  1920    100 men    10.8
 8  1924    100 men    10.6
 9  1928    100 men    10.8
10  1932    100 men    10.3
# … with 302 more rows
…
vic_elec 

# A tsibble: 52,608 x 5 [30m] <Australia/Melbourne>
   Time                Demand Temperature Date       Holiday
   <dttm>               <dbl>       <dbl> <date>     <lgl>  
 1 2012-01-01 00:00:00  4383.        21.4 2012-01-01 TRUE   
 2 2012-01-01 00:30:00  4263.        21.0 2012-01-01 TRUE   
 3 2012-01-01 01:00:00  4049.        20.7 2012-01-01 TRUE   
 4 2012-01-01 01:30:00  3878.        20.6 2012-01-01 TRUE   
 5 2012-01-01 02:00:00  4036.        20.4 2012-01-01 TRUE   
 6 2012-01-01 02:30:00  3866.        20.2 2012-01-01 TRUE   
 7 2012-01-01 03:00:00  3694.        20.1 2012-01-01 TRUE   
 8 2012-01-01 03:30:00  3562.        19.6 2012-01-01 TRUE   
 9 2012-01-01 04:00:00  3433.        19.1 2012-01-01 TRUE   
10 2012-01-01 04:30:00  3359.        19.0 2012-01-01 TRUE   
# … with 52,598 more rows
…
??tourism

h=tourism %>% 
  filter(Purpose=="Holiday") %>% 
  group_by(State) %>% 
  summarise(Ttrips = sum(Trips)) 

h

# A tsibble: 640 x 3 [1Q]
# Key:       State [8]
   State Quarter Ttrips
   <chr>   <qtr>  <dbl>
 1 ACT   1998 Q1   196.
 2 ACT   1998 Q2   127.
 3 ACT   1998 Q3   111.
 4 ACT   1998 Q4   170.
 5 ACT   1999 Q1   108.
 6 ACT   1999 Q2   125.
 7 ACT   1999 Q3   178.
 8 ACT   1999 Q4   218.
 9 ACT   2000 Q1   158.
10 ACT   2000 Q2   155.
# … with 630 more rows
…
